%YAML 1.1
%TAG !u! tag:unity3d.com,2011:
--- !u!114 &11400000
MonoBehaviour:
  m_ObjectHideFlags: 0
  m_CorrespondingSourceObject: {fileID: 0}
  m_PrefabInstance: {fileID: 0}
  m_PrefabAsset: {fileID: 0}
  m_GameObject: {fileID: 0}
  m_Enabled: 1
  m_EditorHideFlags: 0
  m_Script: {fileID: 11500000, guid: 7a7e03fadc278904a9eb131156270e47, type: 3}
  m_Name: GameData
  m_EditorClassIdentifier: 
  playDuration: 120
  _data:
  - {fileID: 11400000, guid: 3ea2db6d34297b94cabbfae56c386805, type: 2}
  - {fileID: 11400000, guid: f3287e5e9bd6d484a8471ce586efd484, type: 2}
  - {fileID: 11400000, guid: 899d38060b032c547bfcd26945b64ba1, type: 2}
  - {fileID: 11400000, guid: fac65b0fb83e4e5478429979aef8125a, type: 2}
  - {fileID: 11400000, guid: 690d17ed3f830bc4291b93a51c23035b, type: 2}
