%YAML 1.1
%TAG !u! tag:unity3d.com,2011:
--- !u!114 &11400000
MonoBehaviour:
  m_ObjectHideFlags: 0
  m_CorrespondingSourceObject: {fileID: 0}
  m_PrefabInstance: {fileID: 0}
  m_PrefabAsset: {fileID: 0}
  m_GameObject: {fileID: 0}
  m_Enabled: 1
  m_EditorHideFlags: 0
  m_Script: {fileID: 11500000, guid: b78af8bedc4cac74bbc22771559c1a4f, type: 3}
  m_Name: LayersData
  m_EditorClassIdentifier: 
  terrainLayer:
    serializedVersion: 2
    m_Bits: 512
  wallsLayer:
    serializedVersion: 2
    m_Bits: 1024
  coinLayer:
    serializedVersion: 2
    m_Bits: 4096
  chestLayer:
    serializedVersion: 2
    m_Bits: 8192
