%YAML 1.1
%TAG !u! tag:unity3d.com,2011:
--- !u!1045 &1
EditorBuildSettings:
  m_ObjectHideFlags: 0
  serializedVersion: 2
  m_Scenes:
  - enabled: 1
    path: Assets/00KingOfThieves/Scenes/MainScene.unity
    guid: 9fc0d4010bbf28b4594072e72b8655ab
  - enabled: 1
    path: Assets/00KingOfThieves/Scenes/Levels/Level_1.unity
    guid: 5fa9642d6dafc024bb4b8b4243914d51
  - enabled: 1
    path: Assets/00KingOfThieves/Scenes/Levels/Level_2.unity
    guid: cc3257e8378bd5942965190020a156eb
  - enabled: 1
    path: Assets/00KingOfThieves/Scenes/Levels/Level_3.unity
    guid: d62f2e4dbfcc487478db35becaa03e44
  m_configObjects: {}
