%YAML 1.1
%TAG !u! tag:unity3d.com,2011:
--- !u!687078895 &4343727234628468602
SpriteAtlas:
  m_ObjectHideFlags: 0
  m_CorrespondingSourceObject: {fileID: 0}
  m_PrefabInstance: {fileID: 0}
  m_PrefabAsset: {fileID: 0}
  m_Name: GameEnv
  m_EditorData:
    serializedVersion: 2
    textureSettings:
      serializedVersion: 2
      anisoLevel: 1
      compressionQuality: 50
      maxTextureSize: 2048
      textureCompression: 0
      filterMode: 1
      generateMipMaps: 0
      readable: 0
      crunchedCompression: 0
      sRGB: 1
    platformSettings: []
    packingSettings:
      serializedVersion: 2
      padding: 4
      blockOffset: 1
      allowAlphaSplitting: 0
      enableRotation: 1
      enableTightPacking: 1
    variantMultiplier: 1
    packables:
    - {fileID: 2800000, guid: 8826e9ad7cb32c44ea2246eea5a1f1f4, type: 3}
    - {fileID: 2800000, guid: 94d0096c96a25b542898e8de04a4a882, type: 3}
    - {fileID: 2800000, guid: 21afa61f128c7a441a5c18c86f741b0e, type: 3}
    - {fileID: 2800000, guid: 2f4741cc1f960ec4d804347f80b76d26, type: 3}
    - {fileID: 2800000, guid: 35d04c51a6d9b184996f383e51d1e04c, type: 3}
    - {fileID: 2800000, guid: d51dc24fb76e034449203ada02df7950, type: 3}
    - {fileID: 2800000, guid: 97f55587e72b8b449bc47bdb9cbd0e7b, type: 3}
    totalSpriteSurfaceArea: 4718592
    bindAsDefault: 1
    storedHash:
      serializedVersion: 2
      Hash: 7fa1c080406adb2c995feed6d2b603bf
  m_MasterAtlas: {fileID: 0}
  m_PackedSprites:
  - {fileID: 21300000, guid: 35d04c51a6d9b184996f383e51d1e04c, type: 3}
  - {fileID: 21300000, guid: 97f55587e72b8b449bc47bdb9cbd0e7b, type: 3}
  - {fileID: 21300000, guid: 94d0096c96a25b542898e8de04a4a882, type: 3}
  - {fileID: 21300000, guid: 2f4741cc1f960ec4d804347f80b76d26, type: 3}
  - {fileID: -7825050663610937039, guid: 8826e9ad7cb32c44ea2246eea5a1f1f4, type: 3}
  - {fileID: 787501311975064224, guid: 8826e9ad7cb32c44ea2246eea5a1f1f4, type: 3}
  - {fileID: 8428519007909978992, guid: 8826e9ad7cb32c44ea2246eea5a1f1f4, type: 3}
  - {fileID: -5073945313046403453, guid: 8826e9ad7cb32c44ea2246eea5a1f1f4, type: 3}
  - {fileID: 2907201418786016401, guid: 8826e9ad7cb32c44ea2246eea5a1f1f4, type: 3}
  - {fileID: 3653002989182228088, guid: 8826e9ad7cb32c44ea2246eea5a1f1f4, type: 3}
  - {fileID: -6341029276875165808, guid: 8826e9ad7cb32c44ea2246eea5a1f1f4, type: 3}
  - {fileID: 1405503413792350746, guid: 8826e9ad7cb32c44ea2246eea5a1f1f4, type: 3}
  - {fileID: 5215300335870722906, guid: 8826e9ad7cb32c44ea2246eea5a1f1f4, type: 3}
  - {fileID: -7583573359008115642, guid: 21afa61f128c7a441a5c18c86f741b0e, type: 3}
  - {fileID: -2375471962883130855, guid: 21afa61f128c7a441a5c18c86f741b0e, type: 3}
  - {fileID: -8580827683236175990, guid: 21afa61f128c7a441a5c18c86f741b0e, type: 3}
  - {fileID: -6673069878090355191, guid: 21afa61f128c7a441a5c18c86f741b0e, type: 3}
  - {fileID: 8312269031834169960, guid: 21afa61f128c7a441a5c18c86f741b0e, type: 3}
  - {fileID: 8409196982569503779, guid: 21afa61f128c7a441a5c18c86f741b0e, type: 3}
  - {fileID: 4019278454818917449, guid: 21afa61f128c7a441a5c18c86f741b0e, type: 3}
  - {fileID: -2329385859126248899, guid: 21afa61f128c7a441a5c18c86f741b0e, type: 3}
  - {fileID: -2197899805175612126, guid: 21afa61f128c7a441a5c18c86f741b0e, type: 3}
  - {fileID: -3495933436890173537, guid: 21afa61f128c7a441a5c18c86f741b0e, type: 3}
  - {fileID: -1101872366054153420, guid: 21afa61f128c7a441a5c18c86f741b0e, type: 3}
  - {fileID: 7915989657127587992, guid: 21afa61f128c7a441a5c18c86f741b0e, type: 3}
  - {fileID: 4084560390645468981, guid: 21afa61f128c7a441a5c18c86f741b0e, type: 3}
  - {fileID: -3086084001926509910, guid: 21afa61f128c7a441a5c18c86f741b0e, type: 3}
  - {fileID: 4618865914775795391, guid: 21afa61f128c7a441a5c18c86f741b0e, type: 3}
  - {fileID: -6456906534679991429, guid: 21afa61f128c7a441a5c18c86f741b0e, type: 3}
  - {fileID: 21300000, guid: d51dc24fb76e034449203ada02df7950, type: 3}
  m_PackedSpriteNamesToIndex:
  - GrassAutumn
  - GrassWinter
  - WhiteBar
  - Dirt
  - chest_spritesheet_6
  - chest_spritesheet_7
  - chest_spritesheet_4
  - chest_spritesheet_5
  - chest_spritesheet_2
  - chest_spritesheet_3
  - chest_spritesheet_0
  - chest_spritesheet_1
  - chest_spritesheet_8
  - coin_spritesheet_15
  - coin_spritesheet_14
  - coin_spritesheet_13
  - coin_spritesheet_12
  - coin_spritesheet_11
  - coin_spritesheet_10
  - coin_spritesheet_4
  - coin_spritesheet_5
  - coin_spritesheet_6
  - coin_spritesheet_7
  - coin_spritesheet_0
  - coin_spritesheet_1
  - coin_spritesheet_2
  - coin_spritesheet_3
  - coin_spritesheet_8
  - coin_spritesheet_9
  - GrassSpring
  m_Tag: GameEnv
  m_IsVariant: 0
