%YAML 1.1
%TAG !u! tag:unity3d.com,2011:
--- !u!687078895 &4343727234628468602
SpriteAtlas:
  m_ObjectHideFlags: 0
  m_CorrespondingSourceObject: {fileID: 0}
  m_PrefabInstance: {fileID: 0}
  m_PrefabAsset: {fileID: 0}
  m_Name: GUI
  m_EditorData:
    serializedVersion: 2
    textureSettings:
      serializedVersion: 2
      anisoLevel: 1
      compressionQuality: 50
      maxTextureSize: 2048
      textureCompression: 0
      filterMode: 1
      generateMipMaps: 0
      readable: 0
      crunchedCompression: 0
      sRGB: 1
    platformSettings: []
    packingSettings:
      serializedVersion: 2
      padding: 8
      blockOffset: 1
      allowAlphaSplitting: 0
      enableRotation: 1
      enableTightPacking: 0
    variantMultiplier: 1
    packables:
    - {fileID: 2800000, guid: 2c19edc28577b234d8d7e81b5bdf5f21, type: 3}
    - {fileID: 2800000, guid: 7105f295c1dc24e4d98a20a9764e2a84, type: 3}
    - {fileID: 2800000, guid: c48097c891802734d98695225a3b3647, type: 3}
    - {fileID: 2800000, guid: 546f1bbf0006f784389ffdb2cb938bc1, type: 3}
    totalSpriteSurfaceArea: 1048576
    bindAsDefault: 1
    storedHash:
      serializedVersion: 2
      Hash: 211c9a8a1063dfd438bafdb13a8a21ee
  m_MasterAtlas: {fileID: 0}
  m_PackedSprites:
  - {fileID: 21300000, guid: 2c19edc28577b234d8d7e81b5bdf5f21, type: 3}
  - {fileID: 21300000, guid: 7105f295c1dc24e4d98a20a9764e2a84, type: 3}
  - {fileID: 21300000, guid: c48097c891802734d98695225a3b3647, type: 3}
  - {fileID: 21300000, guid: 546f1bbf0006f784389ffdb2cb938bc1, type: 3}
  m_PackedSpriteNamesToIndex:
  - Square_BTN
  - Home_ICN
  - Play_ICN
  - Replay_ICN
  m_Tag: GUI
  m_IsVariant: 0
